[
  {
    "selector": "core",
    "style": {
	  "active-bg-color" : "#FFFFFF",
	  "active-bg-opacity" : 0.3,
	  "active-bg-size" : "15px",
      "selection-box-color" : "#AAD8FF",
      "selection-box-border-color" : "#FFFFFF",
	  "selection-box-border-width" : "5px",
      "selection-box-opacity" : 0.9
    }
  },
  {
    "selector": "node",
    "style": {
      "width": "mapData(score, 0, 0.01, 20, 60)",
      "height": "mapData(score, 0, 0.01, 20, 60)",
      "content": "data(name)",
      "text-wrap": "wrap",
      "text-max-width": "mapData(score, 0, 0.2, 20, 60)",
      "font-size": "14px",
      "text-valign": "bottom",
      "text-halign": "center",
      "color": "#333333",
      "text-outline-color": "#f5f8fa",
      "text-outline-width": "2px",
      "z-index": 10,
      "min-zoomed-font-size": 10,
      "background-opacity": 0.9,
      "border-width": 2,
      "border-style": "solid",
      "border-opacity": 1,
      "background-image": "https://ontospace.ru/assets/neighborhood.png",
      "background-image-opacity": 0,
      "background-fit": "contain"
      }
  },
  {
    "selector": "node[group=\"coexp\"]",
    "style": {
      "background-clip": "none",
      "background-fit": "contain"
    }
  },
  {
    "selector": "node:selected",
    "style": {
      "border-width": "4px",
      "border-color": "#b3d4ea",
	  "background-blacken" : 0.2
    }
  },
    {
    "selector": "node[type=\"BASE\"]",
    "style": {
      "border-color": "#0A63AE",
      "background-color": "#5283AA"
    }
  },
  {
    "selector": "node[type=\"COMPOSITE\"]",
    "style": {
      "border-color": "#C29200",
      "background-color": "#C1A657"
    }
  },
  {
    "selector": "node[type=\"ENTITY\"]",
    "style": {
      "border-color": "#7D422B",
      "background-color": "#C17557"
    }
  },
  {
    "selector": "node[type=\"INTERFACE\"]",
    "style": {
      "border-color": "#2A6F52",
      "background-color": "#4EAC84"
    }
  },
  {
    "selector": "edge",
    "style": {
      "curve-style": "bezier",
      "label": "data(label)",
      "font-size": 12,
	  "text-margin-y": 8,
      "text-rotation": "autorotate",
      "opacity": 0.9,
      "line-color": "#333333",
	  "color": "#000000",
	  "text-opacity" : 0.6,
      "line-style": "solid",
      "target-arrow-color": "#333333",
      "target-arrow-shape": "triangle",
      "overlay-padding": 2,
      "min-zoomed-font-size": 6
    }
  },
  {
    "selector": "edge[?composite]",
    "style": {
      "source-arrow-color": "#333333",
      "source-arrow-shape": "diamond"
    }
  },
  {
    "selector": "edge[multiplicity=\"SINGLE\"]",
    "style": {
      "width": 1
    }
  },
  {
    "selector": "edge[multiplicity=\"MULTI\"]",
    "style": {
      "width": 2
    }
  },
  {
    "selector": "edge[?ordered]",
    "style": {
      "source-label": "[ordered]",
      "source-text-offset": "26px",
      "source-text-rotation": "autorotate"
    }
  },
  {
    "selector": ".filtered",
    "style": {
      "display": "none"
    }
  }
]
